Ortolans and oilplants
…
###############################
gd <- dataS %>% 
  group_by(region, fyear) %>% 
  summarise(mter = mean(terri))
gd

## # A tibble: 65 x 3
## # Groups:   region [4]
##    region fyear  mter
##    <fct>  <fct> <dbl>
##  1 ETH    2001  2.38 
##  2 ETH    2002  2.14 
##  3 ETH    2003  1.71 
##  4 ETH    2004  1.43 
##  5 ETH    2005  1.2  
##  6 ETH    2006  0.769
##  7 ETH    2007  0.417
##  8 ETH    2008  0.5  
##  9 ETH    2009  0    
## 10 ETH    2010  0.25 
## # ... with 55 more rows
…
